# Copyright (C) 1991-2015 Altera Corporation. All rights reserved.
# Your use of Altera Corporation's design tools, logic functions 
# and other software and tools, and its AMPP partner logic 
# functions, and any output files from any of the foregoing 
# (including device programming or simulation files), and any 
# associated documentation or information are expressly subject 
# to the terms and conditions of the Altera Program License 
# Subscription Agreement, the Altera Quartus Prime License Agreement,
# the Altera MegaCore Function License Agreement, or other 
# applicable license agreement, including, without limitation, 
# that your use is for the sole purpose of programming logic 
# devices manufactured by Altera and sold by Altera or its 
# authorized distributors.  Please refer to the applicable 
# agreement for further details.

# Quartus Prime Version 15.1.1 Build 189 12/02/2015 SJ Lite Edition
# File: C:\git\de0nano\statemachine\output_files\statemachine.csv
# Generated on: Sun Mar 06 20:01:53 2016

# Note: The column header names should not be changed if you wish to import this .csv file into the Quartus Prime software.

To,Direction,Location,I/O Bank,VREF Group,Fitter Location,I/O Standard,Reserved,Current Strength,Slew Rate,Differential Pair,Strict Preservation
ADC_CS_N,Output,PIN_A10,7,B7_N0,PIN_A10,2.5 V,,,,,
ADC_SADDR,Output,PIN_B10,7,B7_N0,PIN_B10,2.5 V,,,,,
ADC_SCLK,Output,PIN_B14,7,B7_N0,PIN_B14,2.5 V,,,,,
ADC_SDAT,Input,PIN_A9,7,B7_N0,PIN_A9,2.5 V,,,,,
CLK50MHZ,Input,PIN_R8,3,B3_N0,PIN_R8,2.5 V,,,,,
DRAM_ADDR[12],Output,PIN_L4,2,B2_N0,PIN_L4,2.5 V,,,,,
DRAM_ADDR[11],Output,PIN_N1,2,B2_N0,PIN_N1,2.5 V,,,,,
DRAM_ADDR[10],Output,PIN_N2,2,B2_N0,PIN_N2,2.5 V,,,,,
DRAM_ADDR[9],Output,PIN_P1,2,B2_N0,PIN_P1,2.5 V,,,,,
DRAM_ADDR[8],Output,PIN_R1,2,B2_N0,PIN_R1,2.5 V,,,,,
DRAM_ADDR[7],Output,PIN_T6,3,B3_N0,PIN_T6,2.5 V,,,,,
DRAM_ADDR[6],Output,PIN_N8,3,B3_N0,PIN_N8,2.5 V,,,,,
DRAM_ADDR[5],Output,PIN_T7,3,B3_N0,PIN_T7,2.5 V,,,,,
DRAM_ADDR[4],Output,PIN_P8,3,B3_N0,PIN_P8,2.5 V,,,,,
DRAM_ADDR[3],Output,PIN_M8,3,B3_N0,PIN_M8,2.5 V,,,,,
DRAM_ADDR[2],Output,PIN_N6,3,B3_N0,PIN_N6,2.5 V,,,,,
DRAM_ADDR[1],Output,PIN_N5,3,B3_N0,PIN_N5,2.5 V,,,,,
DRAM_ADDR[0],Output,PIN_P2,2,B2_N0,PIN_P2,2.5 V,,,,,
DRAM_BANK_ADDR[1],Output,PIN_M6,3,B3_N0,PIN_M6,2.5 V,,,,,
DRAM_BANK_ADDR[0],Output,PIN_M7,3,B3_N0,PIN_M7,2.5 V,,,,,
DRAM_CAS_N,Output,PIN_L1,2,B2_N0,PIN_L1,2.5 V,,,,,
DRAM_CLK,Output,PIN_R4,3,B3_N0,PIN_R4,2.5 V,,,,,
DRAM_CLK_EN,Output,PIN_L7,3,B3_N0,PIN_L7,2.5 V,,,,,
DRAM_CS_N,Output,PIN_P6,3,B3_N0,PIN_P6,2.5 V,,,,,
DRAM_DATA[15],Output,PIN_K1,2,B2_N0,PIN_K1,2.5 V,,,,,
DRAM_DATA[14],Output,PIN_N3,3,B3_N0,PIN_N3,2.5 V,,,,,
DRAM_DATA[13],Output,PIN_P3,3,B3_N0,PIN_P3,2.5 V,,,,,
DRAM_DATA[12],Output,PIN_R5,3,B3_N0,PIN_R5,2.5 V,,,,,
DRAM_DATA[11],Output,PIN_R3,3,B3_N0,PIN_R3,2.5 V,,,,,
DRAM_DATA[10],Output,PIN_T3,3,B3_N0,PIN_T3,2.5 V,,,,,
DRAM_DATA[9],Output,PIN_T2,3,B3_N0,PIN_T2,2.5 V,,,,,
DRAM_DATA[8],Output,PIN_T4,3,B3_N0,PIN_T4,2.5 V,,,,,
DRAM_DATA[7],Output,PIN_R7,3,B3_N0,PIN_R7,2.5 V,,,,,
DRAM_DATA[6],Output,PIN_J1,2,B2_N0,PIN_J1,2.5 V,,,,,
DRAM_DATA[5],Output,PIN_J2,2,B2_N0,PIN_J2,2.5 V,,,,,
DRAM_DATA[4],Output,PIN_K2,2,B2_N0,PIN_K2,2.5 V,,,,,
DRAM_DATA[3],Output,PIN_K5,2,B2_N0,PIN_K5,2.5 V,,,,,
DRAM_DATA[2],Output,PIN_L8,3,B3_N0,PIN_L8,2.5 V,,,,,
DRAM_DATA[1],Output,PIN_G1,1,B1_N0,PIN_G1,2.5 V,,,,,
DRAM_DATA[0],Output,PIN_G2,1,B1_N0,PIN_G2,2.5 V,,,,,
DRAM_DQM[1],Output,PIN_T5,3,B3_N0,PIN_T5,2.5 V,,,,,
DRAM_DQM[0],Output,PIN_R6,3,B3_N0,PIN_R6,2.5 V,,,,,
DRAM_RAS_N,Output,PIN_L2,2,B2_N0,PIN_L2,2.5 V,,,,,
DRAM_WR_EN,Output,PIN_C2,1,B1_N0,PIN_C2,2.5 V,,,,,
EEPROM_SCLK,Output,PIN_F2,1,B1_N0,PIN_F2,2.5 V,,,,,
EEPROM_SDAT,Input,PIN_F1,1,B1_N0,PIN_F1,2.5 V,,,,,
G_SENSOR_CS,Output,PIN_G5,1,B1_N0,PIN_G5,2.5 V,,,,,
G_SENSOR_INT,Input,PIN_M2,2,B2_N0,PIN_M2,2.5 V,,,,,
JP1_1,Input,PIN_A8,8,B8_N0,PIN_A8,2.5 V,,,,,
JP1_2,Output,PIN_D3,8,B8_N0,PIN_D3,2.5 V,,,,,
JP1_3,Input,PIN_B8,8,B8_N0,PIN_B8,2.5 V,,,,,
JP1_4,Output,PIN_C3,8,B8_N0,PIN_C3,2.5 V,,,,,
JP1_5,Output,PIN_A2,8,B8_N0,PIN_A2,2.5 V,,,,,
JP1_6,Output,PIN_A3,8,B8_N0,PIN_A3,2.5 V,,,,,
JP1_7,Output,PIN_B3,8,B8_N0,PIN_B3,2.5 V,,,,,
JP1_8,Output,PIN_B4,8,B8_N0,PIN_B4,2.5 V,,,,,
JP1_9,Output,PIN_A4,8,B8_N0,PIN_A4,2.5 V,,,,,
JP1_10,Output,PIN_B5,8,B8_N0,PIN_B5,2.5 V,,,,,
JP1_13,Output,PIN_A5,8,B8_N0,PIN_A5,2.5 V,,,,,
JP1_14,Output,PIN_D5,8,B8_N0,PIN_D5,2.5 V,,,,,
JP1_15,Output,PIN_B6,8,B8_N0,PIN_B6,2.5 V,,,,,
JP1_16,Output,PIN_A6,8,B8_N0,PIN_A6,2.5 V,,,,,
JP1_17,Output,PIN_B7,8,B8_N0,PIN_B7,2.5 V,,,,,
JP1_18,Output,PIN_D6,8,B8_N0,PIN_D6,2.5 V,,,,,
JP1_19,Output,PIN_A7,8,B8_N0,PIN_A7,2.5 V,,,,,
JP1_20,Output,PIN_C6,8,B8_N0,PIN_C6,2.5 V,,,,,
JP1_21,Output,PIN_C8,8,B8_N0,PIN_C8,2.5 V,,,,,
JP1_22,Output,PIN_E6,8,B8_N0,PIN_E6,2.5 V,,,,,
JP1_23,Output,PIN_E7,8,B8_N0,PIN_E7,2.5 V,,,,,
JP1_24,Output,PIN_D8,8,B8_N0,PIN_D8,2.5 V,,,,,
JP1_25,Output,PIN_E8,8,B8_N0,PIN_E8,2.5 V,,,,,
JP1_26,Output,PIN_F8,8,B8_N0,PIN_F8,2.5 V,,,,,
JP1_27,Output,PIN_F9,7,B7_N0,PIN_F9,2.5 V,,,,,
JP1_28,Output,PIN_E9,7,B7_N0,PIN_E9,2.5 V,,,,,
JP1_31,Output,PIN_C9,7,B7_N0,PIN_C9,2.5 V,,,,,
JP1_32,Output,PIN_D9,7,B7_N0,PIN_D9,2.5 V,,,,,
JP1_33,Output,PIN_E11,7,B7_N0,PIN_E11,2.5 V,,,,,
JP1_34,Output,PIN_E10,7,B7_N0,PIN_E10,2.5 V,,,,,
JP1_35,Output,PIN_C11,7,B7_N0,PIN_C11,2.5 V,,,,,
JP1_36,Output,PIN_B11,7,B7_N0,PIN_B11,2.5 V,,,,,
JP1_37,Output,PIN_A12,7,B7_N0,PIN_A12,2.5 V,,,,,
JP1_38,Output,PIN_D11,7,B7_N0,PIN_D11,2.5 V,,,,,
JP1_39,Output,PIN_D12,7,B7_N0,PIN_D12,2.5 V,,,,,
JP1_40,Output,PIN_B12,7,B7_N0,PIN_B12,2.5 V,,,,,
JP2_1,Input,PIN_T9,4,B4_N0,PIN_T9,2.5 V,,,,,
JP2_2,Output,PIN_F13,6,B6_N0,PIN_F13,2.5 V,,,,,
JP2_3,Input,PIN_R9,4,B4_N0,PIN_R9,2.5 V,,,,,
JP2_4,Output,PIN_T15,4,B4_N0,PIN_T15,2.5 V,,,,,
JP2_5,Output,PIN_T14,4,B4_N0,PIN_T14,2.5 V,,,,,
JP2_6,Output,PIN_T13,4,B4_N0,PIN_T13,2.5 V,,,,,
JP2_7,Output,PIN_R13,4,B4_N0,PIN_R13,2.5 V,,,,,
JP2_8,Output,PIN_T12,4,B4_N0,PIN_T12,2.5 V,,,,,
JP2_9,Output,PIN_R12,4,B4_N0,PIN_R12,2.5 V,,,,,
JP2_10,Output,PIN_T11,4,B4_N0,PIN_T11,2.5 V,,,,,
JP2_13,Output,PIN_T10,4,B4_N0,PIN_T10,2.5 V,,,,,
JP2_14,Output,PIN_R11,4,B4_N0,PIN_R11,2.5 V,,,,,
JP2_15,Output,PIN_P11,4,B4_N0,PIN_P11,2.5 V,,,,,
JP2_16,Output,PIN_R10,4,B4_N0,PIN_R10,2.5 V,,,,,
JP2_17,Output,PIN_N12,4,B4_N0,PIN_N12,2.5 V,,,,,
JP2_18,Output,PIN_P9,4,B4_N0,PIN_P9,2.5 V,,,,,
JP2_19,Output,PIN_N9,4,B4_N0,PIN_N9,2.5 V,,,,,
JP2_20,Output,PIN_N11,4,B4_N0,PIN_N11,2.5 V,,,,,
JP2_21,Output,PIN_L16,5,B5_N0,PIN_L16,2.5 V,,,,,
JP2_22,Output,PIN_K16,5,B5_N0,PIN_K16,2.5 V,,,,,
JP2_23,Output,PIN_R16,5,B5_N0,PIN_R16,2.5 V,,,,,
JP2_24,Output,PIN_L15,5,B5_N0,PIN_L15,2.5 V,,,,,
JP2_25,Output,PIN_P15,5,B5_N0,PIN_P15,2.5 V,,,,,
JP2_26,Output,PIN_P16,5,B5_N0,PIN_P16,2.5 V,,,,,
JP2_27,Output,PIN_R14,4,B4_N0,PIN_R14,2.5 V,,,,,
JP2_28,Output,PIN_N16,5,B5_N0,PIN_N16,2.5 V,,,,,
JP2_31,Output,PIN_N15,5,B5_N0,PIN_N15,2.5 V,,,,,
JP2_32,Output,PIN_P14,4,B4_N0,PIN_P14,2.5 V,,,,,
JP2_33,Output,PIN_L14,5,B5_N0,PIN_L14,2.5 V,,,,,
JP2_34,Output,PIN_N14,5,B5_N0,PIN_N14,2.5 V,,,,,
JP2_35,Output,PIN_M10,4,B4_N0,PIN_M10,2.5 V,,,,,
JP2_36,Output,PIN_L13,5,B5_N0,PIN_L13,2.5 V,,,,,
JP2_37,Output,PIN_J16,5,B5_N0,PIN_J16,2.5 V,,,,,
JP2_38,Output,PIN_K15,5,B5_N0,PIN_K15,2.5 V,,,,,
JP2_39,Output,PIN_J13,5,B5_N0,PIN_J13,2.5 V,,,,,
JP2_40,Output,PIN_J14,5,B5_N0,PIN_J14,2.5 V,,,,,
JP3_2,Input,PIN_E15,6,B6_N0,PIN_E15,2.5 V,,,,,
JP3_3,Input,PIN_E16,6,B6_N0,PIN_E16,2.5 V,,,,,
JP3_4,Input,PIN_M16,5,B5_N0,PIN_M16,2.5 V,,,,,
JP3_5,Output,PIN_A14,7,B7_N0,PIN_A14,2.5 V,,,,,
JP3_6,Output,PIN_B16,6,B6_N0,PIN_B16,2.5 V,,,,,
JP3_7,Output,PIN_C14,7,B7_N0,PIN_C14,2.5 V,,,,,
JP3_8,Output,PIN_C16,6,B6_N0,PIN_C16,2.5 V,,,,,
JP3_9,Output,PIN_C15,6,B6_N0,PIN_C15,2.5 V,,,,,
JP3_10,Output,PIN_D16,6,B6_N0,PIN_D16,2.5 V,,,,,
JP3_11,Output,PIN_D15,6,B6_N0,PIN_D15,2.5 V,,,,,
JP3_12,Output,PIN_D14,7,B7_N0,PIN_D14,2.5 V,,,,,
JP3_13,Output,PIN_F15,6,B6_N0,PIN_F15,2.5 V,,,,,
JP3_15,Output,PIN_F14,6,B6_N0,PIN_F14,2.5 V,,,,,
JP3_16,Output,PIN_G16,6,B6_N0,PIN_G16,2.5 V,,,,,
JP3_17,Output,PIN_G15,6,B6_N0,PIN_G15,2.5 V,,,,,
KEY[1],Input,PIN_E1,1,B1_N0,PIN_E1,2.5 V,,,,,
KEY[0],Input,PIN_J15,5,B5_N0,PIN_J15,2.5 V,,,,,
LED[7],Output,PIN_L3,2,B2_N0,PIN_L3,2.5 V,,,,,
LED[6],Output,PIN_B1,1,B1_N0,PIN_B1,2.5 V,,,,,
LED[5],Output,PIN_F3,1,B1_N0,PIN_F3,2.5 V,,,,,
LED[4],Output,PIN_D1,1,B1_N0,PIN_D1,2.5 V,,,,,
LED[3],Output,PIN_A11,7,B7_N0,PIN_A11,2.5 V,,,,,
LED[2],Output,PIN_B13,7,B7_N0,PIN_B13,2.5 V,,,,,
LED[1],Output,PIN_A13,7,B7_N0,PIN_A13,2.5 V,,,,,
LED[0],Output,PIN_A15,7,B7_N0,PIN_A15,2.5 V,,,,,
SWITCH[3],Input,PIN_M15,5,B5_N0,PIN_M15,2.5 V,,,,,
SWITCH[2],Input,PIN_B9,7,B7_N0,PIN_B9,2.5 V,,,,,
SWITCH[1],Input,PIN_T8,3,B3_N0,PIN_T8,2.5 V,,,,,
SWITCH[0],Input,PIN_M1,2,B2_N0,PIN_M1,2.5 V,,,,,
